solid OpenSCAD_Model
  facet normal -1 0 0
    outer loop
      vertex 6.5 20 0.5
      vertex 6.5 50 10
      vertex 6.5 50 0.5
    endloop
  endfacet
  facet normal -1 -0 0
    outer loop
      vertex 6.5 50 10
      vertex 6.5 20 0.5
      vertex 6.5 20 10
    endloop
  endfacet
  facet normal 0 0 1
    outer loop
      vertex 6.5 50 0.5
      vertex -6.5 50 0.5
      vertex 6.5 20 0.5
    endloop
  endfacet
  facet normal -0 0 1
    outer loop
      vertex 6.5 20 0.5
      vertex 7.5 7.5 0.5
      vertex 7.5 20 0.5
    endloop
  endfacet
  facet normal 0 0 1
    outer loop
      vertex -7.5 7.5 0.5
      vertex 7.5 7.5 0.5
      vertex 6.5 20 0.5
    endloop
  endfacet
  facet normal 0 0 1
    outer loop
      vertex -6.5 20 0.5
      vertex 6.5 20 0.5
      vertex -6.5 50 0.5
    endloop
  endfacet
  facet normal 0 0 1
    outer loop
      vertex -7.5 7.5 0.5
      vertex 6.5 20 0.5
      vertex -6.5 20 0.5
    endloop
  endfacet
  facet normal 0 0 1
    outer loop
      vertex -7.5 7.5 0.5
      vertex -6.5 20 0.5
      vertex -7.5 20 0.5
    endloop
  endfacet
  facet normal 0 0 1
    outer loop
      vertex 7.5 7.5 0.5
      vertex -7.5 7.5 0.5
      vertex 7.5 -7.5 0.5
    endloop
  endfacet
  facet normal -0 0 1
    outer loop
      vertex 7.5 7.5 0.5
      vertex 20 6.5 0.5
      vertex 20 7.5 0.5
    endloop
  endfacet
  facet normal 0 0 1
    outer loop
      vertex 20 6.5 0.5
      vertex 7.5 7.5 0.5
      vertex 20 -6.5 0.5
    endloop
  endfacet
  facet normal 0 0 1
    outer loop
      vertex 7.5 -7.5 0.5
      vertex 20 -6.5 0.5
      vertex 7.5 7.5 0.5
    endloop
  endfacet
  facet normal 0 0 1
    outer loop
      vertex 20 -6.5 0.5
      vertex 7.5 -7.5 0.5
      vertex 20 -7.5 0.5
    endloop
  endfacet
  facet normal -0 0 1
    outer loop
      vertex 20 6.5 0.5
      vertex 50 -6.5 0.5
      vertex 50 6.5 0.5
    endloop
  endfacet
  facet normal 0 0 1
    outer loop
      vertex 50 -6.5 0.5
      vertex 20 6.5 0.5
      vertex 20 -6.5 0.5
    endloop
  endfacet
  facet normal 1 -0 0
    outer loop
      vertex -6.5 20 10
      vertex -6.5 50 0.5
      vertex -6.5 50 10
    endloop
  endfacet
  facet normal 1 0 0
    outer loop
      vertex -6.5 50 0.5
      vertex -6.5 20 10
      vertex -6.5 20 0.5
    endloop
  endfacet
  facet normal 0 1 0
    outer loop
      vertex 7.5 50 10
      vertex 6.5 50 0.5
      vertex 6.5 50 10
    endloop
  endfacet
  facet normal 0 1 0
    outer loop
      vertex 6.5 50 0.5
      vertex 6.5 50 -0.5
      vertex -6.5 50 0.5
    endloop
  endfacet
  facet normal 0 1 0
    outer loop
      vertex 7.5 50 10
      vertex 6.5 50 -0.5
      vertex 6.5 50 0.5
    endloop
  endfacet
  facet normal 0 1 -0
    outer loop
      vertex 7.5 50 -10
      vertex 6.5 50 -0.5
      vertex 7.5 50 10
    endloop
  endfacet
  facet normal 0 1 0
    outer loop
      vertex 6.5 50 -0.5
      vertex 7.5 50 -10
      vertex 6.5 50 -10
    endloop
  endfacet
  facet normal 0 1 -0
    outer loop
      vertex -6.5 50 0.5
      vertex -7.5 50 10
      vertex -6.5 50 10
    endloop
  endfacet
  facet normal 0 1 0
    outer loop
      vertex -6.5 50 -0.5
      vertex -6.5 50 0.5
      vertex 6.5 50 -0.5
    endloop
  endfacet
  facet normal 0 1 -0
    outer loop
      vertex -6.5 50 -0.5
      vertex -7.5 50 10
      vertex -6.5 50 0.5
    endloop
  endfacet
  facet normal 0 1 0
    outer loop
      vertex -7.5 50 -10
      vertex -6.5 50 -0.5
      vertex -6.5 50 -10
    endloop
  endfacet
  facet normal 0 1 0
    outer loop
      vertex -6.5 50 -0.5
      vertex -7.5 50 -10
      vertex -7.5 50 10
    endloop
  endfacet
  facet normal -1 0 0
    outer loop
      vertex 6.5 20 -10
      vertex 6.5 50 -0.5
      vertex 6.5 50 -10
    endloop
  endfacet
  facet normal -1 -0 0
    outer loop
      vertex 6.5 50 -0.5
      vertex 6.5 20 -10
      vertex 6.5 20 -0.5
    endloop
  endfacet
  facet normal 0 0 -1
    outer loop
      vertex 7.5 -7.5 -0.5
      vertex 20 -6.5 -0.5
      vertex 20 -7.5 -0.5
    endloop
  endfacet
  facet normal -0 0 -1
    outer loop
      vertex 20 -6.5 -0.5
      vertex 7.5 -7.5 -0.5
      vertex 20 6.5 -0.5
    endloop
  endfacet
  facet normal 0 0 -1
    outer loop
      vertex 7.5 7.5 -0.5
      vertex 20 6.5 -0.5
      vertex 7.5 -7.5 -0.5
    endloop
  endfacet
  facet normal 0 0 -1
    outer loop
      vertex 20 6.5 -0.5
      vertex 7.5 7.5 -0.5
      vertex 20 7.5 -0.5
    endloop
  endfacet
  facet normal 0 0 -1
    outer loop
      vertex -7.5 7.5 -0.5
      vertex 7.5 7.5 -0.5
      vertex 7.5 -7.5 -0.5
    endloop
  endfacet
  facet normal 0 0 -1
    outer loop
      vertex 7.5 7.5 -0.5
      vertex 6.5 20 -0.5
      vertex 7.5 20 -0.5
    endloop
  endfacet
  facet normal 0 0 -1
    outer loop
      vertex 6.5 20 -0.5
      vertex -6.5 20 -0.5
      vertex 6.5 50 -0.5
    endloop
  endfacet
  facet normal 0 0 -1
    outer loop
      vertex 7.5 7.5 -0.5
      vertex -7.5 7.5 -0.5
      vertex 6.5 20 -0.5
    endloop
  endfacet
  facet normal -0 0 -1
    outer loop
      vertex 6.5 20 -0.5
      vertex -7.5 7.5 -0.5
      vertex -6.5 20 -0.5
    endloop
  endfacet
  facet normal -0 0 -1
    outer loop
      vertex -6.5 20 -0.5
      vertex -7.5 7.5 -0.5
      vertex -7.5 20 -0.5
    endloop
  endfacet
  facet normal 0 0 -1
    outer loop
      vertex 20 -6.5 -0.5
      vertex 50 6.5 -0.5
      vertex 50 -6.5 -0.5
    endloop
  endfacet
  facet normal -0 0 -1
    outer loop
      vertex 50 6.5 -0.5
      vertex 20 -6.5 -0.5
      vertex 20 6.5 -0.5
    endloop
  endfacet
  facet normal -0 0 -1
    outer loop
      vertex 6.5 50 -0.5
      vertex -6.5 20 -0.5
      vertex -6.5 50 -0.5
    endloop
  endfacet
  facet normal 1 -0 0
    outer loop
      vertex -6.5 20 -0.5
      vertex -6.5 50 -10
      vertex -6.5 50 -0.5
    endloop
  endfacet
  facet normal 1 0 0
    outer loop
      vertex -6.5 50 -10
      vertex -6.5 20 -0.5
      vertex -6.5 20 -10
    endloop
  endfacet
  facet normal 1 -0 0
    outer loop
      vertex 7.5 7.5 0.5
      vertex 7.5 20 -0.5
      vertex 7.5 20 0.5
    endloop
  endfacet
  facet normal 1 0 0
    outer loop
      vertex 7.5 20 -0.5
      vertex 7.5 7.5 0.5
      vertex 7.5 7.5 -0.5
    endloop
  endfacet
  facet normal 1 0 0
    outer loop
      vertex 7.5 20 0.5
      vertex 7.5 50 10
      vertex 7.5 20 10
    endloop
  endfacet
  facet normal 1 0 0
    outer loop
      vertex 7.5 50 10
      vertex 7.5 20 0.5
      vertex 7.5 50 -10
    endloop
  endfacet
  facet normal 1 -0 0
    outer loop
      vertex 7.5 20 -0.5
      vertex 7.5 50 -10
      vertex 7.5 20 0.5
    endloop
  endfacet
  facet normal 1 0 0
    outer loop
      vertex 7.5 50 -10
      vertex 7.5 20 -0.5
      vertex 7.5 20 -10
    endloop
  endfacet
  facet normal -0 0 1
    outer loop
      vertex -7.5 50 10
      vertex -6.5 20 10
      vertex -6.5 50 10
    endloop
  endfacet
  facet normal 0 0 1
    outer loop
      vertex -6.5 20 10
      vertex -7.5 50 10
      vertex -7.5 20 10
    endloop
  endfacet
  facet normal -0 0 1
    outer loop
      vertex 6.5 50 10
      vertex 7.5 20 10
      vertex 7.5 50 10
    endloop
  endfacet
  facet normal 0 0 1
    outer loop
      vertex 7.5 20 10
      vertex 6.5 50 10
      vertex 6.5 20 10
    endloop
  endfacet
  facet normal -0 0 1
    outer loop
      vertex 20 7.5 10
      vertex 50 6.5 10
      vertex 50 7.5 10
    endloop
  endfacet
  facet normal 0 0 1
    outer loop
      vertex 50 6.5 10
      vertex 20 7.5 10
      vertex 20 6.5 10
    endloop
  endfacet
  facet normal 0 0 -1
    outer loop
      vertex 6.5 20 -10
      vertex 7.5 50 -10
      vertex 7.5 20 -10
    endloop
  endfacet
  facet normal -0 0 -1
    outer loop
      vertex 7.5 50 -10
      vertex 6.5 20 -10
      vertex 6.5 50 -10
    endloop
  endfacet
  facet normal 0 0 -1
    outer loop
      vertex -7.5 20 -10
      vertex -6.5 50 -10
      vertex -6.5 20 -10
    endloop
  endfacet
  facet normal -0 0 -1
    outer loop
      vertex -6.5 50 -10
      vertex -7.5 20 -10
      vertex -7.5 50 -10
    endloop
  endfacet
  facet normal 0 0 -1
    outer loop
      vertex 20 6.5 -10
      vertex 50 7.5 -10
      vertex 50 6.5 -10
    endloop
  endfacet
  facet normal -0 0 -1
    outer loop
      vertex 50 7.5 -10
      vertex 20 6.5 -10
      vertex 20 7.5 -10
    endloop
  endfacet
  facet normal -1 0 0
    outer loop
      vertex -7.5 7.5 -0.5
      vertex -7.5 20 0.5
      vertex -7.5 20 -0.5
    endloop
  endfacet
  facet normal -1 -0 0
    outer loop
      vertex -7.5 20 0.5
      vertex -7.5 7.5 -0.5
      vertex -7.5 7.5 0.5
    endloop
  endfacet
  facet normal -1 0 0
    outer loop
      vertex -7.5 20 -0.5
      vertex -7.5 50 -10
      vertex -7.5 20 -10
    endloop
  endfacet
  facet normal -1 0 0
    outer loop
      vertex -7.5 50 -10
      vertex -7.5 20 -0.5
      vertex -7.5 50 10
    endloop
  endfacet
  facet normal -1 0 0
    outer loop
      vertex -7.5 20 0.5
      vertex -7.5 50 10
      vertex -7.5 20 -0.5
    endloop
  endfacet
  facet normal -1 -0 0
    outer loop
      vertex -7.5 50 10
      vertex -7.5 20 0.5
      vertex -7.5 20 10
    endloop
  endfacet
  facet normal 0 1 -0
    outer loop
      vertex 50 -6.5 0.5
      vertex 20 -6.5 10
      vertex 50 -6.5 10
    endloop
  endfacet
  facet normal 0 1 0
    outer loop
      vertex 20 -6.5 10
      vertex 50 -6.5 0.5
      vertex 20 -6.5 0.5
    endloop
  endfacet
  facet normal 0 -1 0
    outer loop
      vertex 20 6.5 0.5
      vertex 50 6.5 10
      vertex 20 6.5 10
    endloop
  endfacet
  facet normal 0 -1 -0
    outer loop
      vertex 50 6.5 10
      vertex 20 6.5 0.5
      vertex 50 6.5 0.5
    endloop
  endfacet
  facet normal 1 -0 0
    outer loop
      vertex 50 -7.5 10
      vertex 50 -6.5 0.5
      vertex 50 -6.5 10
    endloop
  endfacet
  facet normal 1 0 0
    outer loop
      vertex 50 -6.5 0.5
      vertex 50 -7.5 10
      vertex 50 -6.5 -0.5
    endloop
  endfacet
  facet normal 1 0 0
    outer loop
      vertex 50 -7.5 -10
      vertex 50 -6.5 -0.5
      vertex 50 -7.5 10
    endloop
  endfacet
  facet normal 1 0 0
    outer loop
      vertex 50 -6.5 -0.5
      vertex 50 -7.5 -10
      vertex 50 -6.5 -10
    endloop
  endfacet
  facet normal 1 -0 0
    outer loop
      vertex 50 -6.5 0.5
      vertex 50 6.5 -0.5
      vertex 50 6.5 0.5
    endloop
  endfacet
  facet normal 1 0 0
    outer loop
      vertex 50 6.5 -0.5
      vertex 50 -6.5 0.5
      vertex 50 -6.5 -0.5
    endloop
  endfacet
  facet normal 1 0 0
    outer loop
      vertex 50 6.5 0.5
      vertex 50 7.5 10
      vertex 50 6.5 10
    endloop
  endfacet
  facet normal 1 0 0
    outer loop
      vertex 50 7.5 10
      vertex 50 6.5 0.5
      vertex 50 7.5 -10
    endloop
  endfacet
  facet normal 1 -0 0
    outer loop
      vertex 50 6.5 -0.5
      vertex 50 7.5 -10
      vertex 50 6.5 0.5
    endloop
  endfacet
  facet normal 1 0 0
    outer loop
      vertex 50 7.5 -10
      vertex 50 6.5 -0.5
      vertex 50 6.5 -10
    endloop
  endfacet
  facet normal 0 1 -0
    outer loop
      vertex 50 -6.5 -10
      vertex 20 -6.5 -0.5
      vertex 50 -6.5 -0.5
    endloop
  endfacet
  facet normal 0 1 0
    outer loop
      vertex 20 -6.5 -0.5
      vertex 50 -6.5 -10
      vertex 20 -6.5 -10
    endloop
  endfacet
  facet normal 0 -1 0
    outer loop
      vertex 20 6.5 -10
      vertex 50 6.5 -0.5
      vertex 20 6.5 -0.5
    endloop
  endfacet
  facet normal 0 -1 -0
    outer loop
      vertex 50 6.5 -0.5
      vertex 20 6.5 -10
      vertex 50 6.5 -10
    endloop
  endfacet
  facet normal 0 -1 0
    outer loop
      vertex 7.5 -7.5 0.5
      vertex 7.5 -7.5 -0.5
      vertex 20 -7.5 0.5
    endloop
  endfacet
  facet normal 0 -1 0
    outer loop
      vertex 20 -7.5 0.5
      vertex 50 -7.5 10
      vertex 20 -7.5 10
    endloop
  endfacet
  facet normal 0 -1 0
    outer loop
      vertex 20 -7.5 -0.5
      vertex 20 -7.5 0.5
      vertex 7.5 -7.5 -0.5
    endloop
  endfacet
  facet normal 0 -1 0
    outer loop
      vertex 20 -7.5 -0.5
      vertex 50 -7.5 10
      vertex 20 -7.5 0.5
    endloop
  endfacet
  facet normal 0 -1 0
    outer loop
      vertex 50 -7.5 -10
      vertex 20 -7.5 -0.5
      vertex 20 -7.5 -10
    endloop
  endfacet
  facet normal 0 -1 0
    outer loop
      vertex 20 -7.5 -0.5
      vertex 50 -7.5 -10
      vertex 50 -7.5 10
    endloop
  endfacet
  facet normal -0 0 1
    outer loop
      vertex 20 -6.5 10
      vertex 50 -7.5 10
      vertex 50 -6.5 10
    endloop
  endfacet
  facet normal 0 0 1
    outer loop
      vertex 50 -7.5 10
      vertex 20 -6.5 10
      vertex 20 -7.5 10
    endloop
  endfacet
  facet normal 0 0 -1
    outer loop
      vertex 20 -7.5 -10
      vertex 50 -6.5 -10
      vertex 50 -7.5 -10
    endloop
  endfacet
  facet normal -0 0 -1
    outer loop
      vertex 50 -6.5 -10
      vertex 20 -7.5 -10
      vertex 20 -6.5 -10
    endloop
  endfacet
  facet normal 0 1 0
    outer loop
      vertex 50 7.5 10
      vertex 20 7.5 0.5
      vertex 20 7.5 10
    endloop
  endfacet
  facet normal 0 1 0
    outer loop
      vertex 20 7.5 0.5
      vertex 20 7.5 -0.5
      vertex 7.5 7.5 0.5
    endloop
  endfacet
  facet normal 0 1 0
    outer loop
      vertex 50 7.5 10
      vertex 20 7.5 -0.5
      vertex 20 7.5 0.5
    endloop
  endfacet
  facet normal 0 1 -0
    outer loop
      vertex 50 7.5 -10
      vertex 20 7.5 -0.5
      vertex 50 7.5 10
    endloop
  endfacet
  facet normal 0 1 0
    outer loop
      vertex 20 7.5 -0.5
      vertex 50 7.5 -10
      vertex 20 7.5 -10
    endloop
  endfacet
  facet normal 0 1 0
    outer loop
      vertex 7.5 7.5 0.5
      vertex 20 7.5 -0.5
      vertex 7.5 7.5 -0.5
    endloop
  endfacet
  facet normal -1 0 0
    outer loop
      vertex 20 -7.5 -10
      vertex 20 -6.5 -0.5
      vertex 20 -6.5 -10
    endloop
  endfacet
  facet normal -1 -0 0
    outer loop
      vertex 20 -6.5 -0.5
      vertex 20 -7.5 -10
      vertex 20 -7.5 -0.5
    endloop
  endfacet
  facet normal -1 0 0
    outer loop
      vertex 20 6.5 -10
      vertex 20 7.5 -0.5
      vertex 20 7.5 -10
    endloop
  endfacet
  facet normal -1 -0 0
    outer loop
      vertex 20 7.5 -0.5
      vertex 20 6.5 -10
      vertex 20 6.5 -0.5
    endloop
  endfacet
  facet normal 0 -1 0
    outer loop
      vertex -7.5 20 -10
      vertex -6.5 20 -0.5
      vertex -7.5 20 -0.5
    endloop
  endfacet
  facet normal 0 -1 -0
    outer loop
      vertex -6.5 20 -0.5
      vertex -7.5 20 -10
      vertex -6.5 20 -10
    endloop
  endfacet
  facet normal 0 -1 0
    outer loop
      vertex 6.5 20 -10
      vertex 7.5 20 -0.5
      vertex 6.5 20 -0.5
    endloop
  endfacet
  facet normal 0 -1 -0
    outer loop
      vertex 7.5 20 -0.5
      vertex 6.5 20 -10
      vertex 7.5 20 -10
    endloop
  endfacet
  facet normal -1 0 0
    outer loop
      vertex 20 -7.5 0.5
      vertex 20 -6.5 10
      vertex 20 -6.5 0.5
    endloop
  endfacet
  facet normal -1 -0 0
    outer loop
      vertex 20 -6.5 10
      vertex 20 -7.5 0.5
      vertex 20 -7.5 10
    endloop
  endfacet
  facet normal -1 0 0
    outer loop
      vertex 20 6.5 0.5
      vertex 20 7.5 10
      vertex 20 7.5 0.5
    endloop
  endfacet
  facet normal -1 -0 0
    outer loop
      vertex 20 7.5 10
      vertex 20 6.5 0.5
      vertex 20 6.5 10
    endloop
  endfacet
  facet normal 0 -1 0
    outer loop
      vertex -7.5 20 0.5
      vertex -6.5 20 10
      vertex -7.5 20 10
    endloop
  endfacet
  facet normal 0 -1 -0
    outer loop
      vertex -6.5 20 10
      vertex -7.5 20 0.5
      vertex -6.5 20 0.5
    endloop
  endfacet
  facet normal 0 -1 0
    outer loop
      vertex 6.5 20 0.5
      vertex 7.5 20 10
      vertex 6.5 20 10
    endloop
  endfacet
  facet normal 0 -1 -0
    outer loop
      vertex 7.5 20 10
      vertex 6.5 20 0.5
      vertex 7.5 20 0.5
    endloop
  endfacet
  facet normal -0.707107 -0.707107 0
    outer loop
      vertex 7.5 -7.5 -0.5
      vertex -7.5 7.5 0.5
      vertex -7.5 7.5 -0.5
    endloop
  endfacet
  facet normal -0.707107 -0.707107 0
    outer loop
      vertex -7.5 7.5 0.5
      vertex 7.5 -7.5 -0.5
      vertex 7.5 -7.5 0.5
    endloop
  endfacet
endsolid OpenSCAD_Model
